…
    ## [1] "la llamada promedio dura  14.89 minutos"

``` r
#tabla de frecuencias con tiempo de llamada

tiempo_de_llamada <- data %>% 
  mutate(duracion_llamada = as.period(duracion_llamada, unit = "minutes")) %>% 
  group_by(duracion_llamada) %>% 
  summarise(num_llamadas = n())

print(tiempo_de_llamada)
```

    ## # A tibble: 31 × 2
    ##    duracion_llamada num_llamadas
    ##    <Period>                <int>
    ##  1 0S                       9706
    ##  2 1M 0S                    8741
    ##  3 2M 0S                    8508
    ##  4 3M 0S                    8445
    ##  5 4M 0S                    8513
    ##  6 5M 0S                    8413
    ##  7 6M 0S                    8501
    ##  8 7M 0S                    8420
    ##  9 8M 0S                    8576
    ## 10 9M 0S                    8504
    ## # ℹ 21 more rows
…
``` r
vuelos <- vuelos %>% 
  select(-c(year, month, day, dep_time, sched_dep_time, arr_time, sched_arr_time, hour, minute, 
            time_hour, departure, arr_time_hora, arr_time_min, dep_time_hora, dep_time_min, sched_arr_time_hora,
            sched_arr_time_min, sched_dep_time_hora, sched_dep_time_min))

vuelos <- vuelos %>% 
  mutate(
    delay_total = dep_delay + arr_delay
  )

print(vuelos)
```

    ## # A tibble: 336,776 × 14
    ##    dep_delay arr_delay carrier flight tailnum origin dest  air_time distance
    ##        <dbl>     <dbl> <chr>    <int> <chr>   <chr>  <chr>    <dbl>    <dbl>
    ##  1         2        11 UA        1545 N14228  EWR    IAH        227     1400
    ##  2         4        20 UA        1714 N24211  LGA    IAH        227     1416
    ##  3         2        33 AA        1141 N619AA  JFK    MIA        160     1089
    ##  4        -1       -18 B6         725 N804JB  JFK    BQN        183     1576
    ##  5        -6       -25 DL         461 N668DN  LGA    ATL        116      762
    ##  6        -4        12 UA        1696 N39463  EWR    ORD        150      719
    ##  7        -5        19 B6         507 N516JB  EWR    FLL        158     1065
    ##  8        -3       -14 EV        5708 N829AS  LGA    IAD         53      229
    ##  9        -3        -8 B6          79 N593JB  JFK    MCO        140      944
    ## 10        -2         8 AA         301 N3ALAA  LGA    ORD        138      733
    ## # ℹ 336,766 more rows
    ## # ℹ 5 more variables: sched_departure_time <dttm>, arrival_time <dttm>,
    ## #   departure_time <dttm>, sched_arrival_time <dttm>, delay_total <dbl>
